…
## -module to sample

``` r
# module Sample correlation

MEs0 %>%
  pivot_longer(-treatment) %>%
  mutate(
    name = gsub("ME", "", name),
    name = factor(name, levels = module_order)
  )
```

    ## # A tibble: 1,056 × 3
    ##    treatment name          value
    ##    <fct>     <chr>         <dbl>
    ##  1 Kelly_Nx  greenyellow -0.0226
    ##  2 Kelly_Nx  black       -0.0724
    ##  3 Kelly_Nx  blue        -0.104 
    ##  4 Kelly_Nx  pink        -0.0228
    ##  5 Kelly_Nx  green        0.0930
    ##  6 Kelly_Nx  purple      -0.0462
    ##  7 Kelly_Nx  brown        0.0634
    ##  8 Kelly_Nx  turquoise    0.125 
    ##  9 Kelly_Nx  magenta     -0.0611
    ## 10 Kelly_Nx  red         -0.0419
    ## # ℹ 1,046 more rows
…
