…
``` r
file.exists(Samplepath)
```

```         
## [1] TRUE
```

``` r
Samplefile <- read_xlsx(Samplepath)
Samplefile
```

```         
## # A tibble: 50 × 19
##    `Sample order number` Sample name [example: P1000_RN…¹ Sample name [user de…²
##                    <dbl> <chr>                                             <dbl>
##  1                    53 P3302_RNA_01                                      10897
##  2                    54 P3302_RNA_02                                      10898
##  3                    55 P3302_RNA_03                                      10899
##  4                    56 P3302_RNA_04                                      10900
##  5                    57 P3302_RNA_05                                      10901
##  6                    58 P3302_RNA_06                                      10902
##  7                    59 P3302_RNA_07                                      10903
##  8                    60 P3302_RNA_08                                      10904
##  9                    61 P3302_RNA_09                                      10905
## 10                    62 P3302_RNA_10                                      10906
## # ℹ 40 more rows
## # ℹ abbreviated names: ¹​`Sample name [example: P1000_RNA_01]`,
## #   ²​`Sample name [user defined]`
## # ℹ 16 more variables:
## #   `how was the concentration measured (Qubit, Nanodrop, etc.)` <chr>,
## #   `RNA conc. [ng/µl]` <dbl>, `delivered volume [µl]` <dbl>,
## #   `RNA origin (organism)` <chr>, …
```
…
file.exists(Samplepath)
```

```         
## [1] TRUE
```

``` r
Samplefile <- read_xlsx(Samplepath)
Samplefile
```

```         
## # A tibble: 22 × 14
##    samplename   `CUGE-ID` rna_id Datum               experiment
##    <chr>            <dbl>  <dbl> <dttm>              <chr>     
##  1 P2041_RNA_01     10619   6952 2017-05-04 00:00:00 Control   
##  2 P2041_RNA_03     10621  10185 2021-06-16 00:00:00 Simon     
##  3 P2041_RNA_04     10744  10186 2021-06-16 00:00:00 Simon     
##  4 P2041_RNA_05     10745  10189 2021-06-16 00:00:00 Simon     
##  5 P2041_RNA_11     10754  10268 2021-08-25 00:00:00 Simon     
##  6 P2041_RNA_12     10755  10269 2021-08-25 00:00:00 Simon     
##  7 P2041_RNA_15     10625  10276 2021-08-25 00:00:00 Simon     
##  8 P2041_RNA_21     10631  10284 2021-08-25 00:00:00 Simon     
##  9 P2041_RNA_22     10632  10285 2021-08-25 00:00:00 Simon     
## 10 P2041_RNA_25     10635  10292 2021-08-27 00:00:00 Simon     
## # ℹ 12 more rows
## # ℹ 9 more variables: experiment_date <dttm>, repetition <dbl>, exp_rep <lgl>,
## #   Probe <chr>, treatment <chr>, genotype <chr>, clone <chr>, Nx <chr>,
## #   HX <chr>
```
…
